Sellers EDA (OIivia)
…
In [63]:

length(unique(Sellers$seller_state)) # 23 states

23

Finding sellers with largest orders¶

In [64]:

Sellers_1 <- Olist %>% select(price, seller_id) %>% print(n=10)

Sellers_ordered <- Sellers_1 %>% arrange(desc(price)) %>% print(n = 10) #Top 10 sellers with largest price items value

# A tibble: 116,581 x 2
   price seller_id                       
   <dbl> <chr>                           
 1  125. 7c67e1448b00f6e969d365cea6b010ab
 2  113. 7c67e1448b00f6e969d365cea6b010ab
 3  113. 7c67e1448b00f6e969d365cea6b010ab
 4  125. 7c67e1448b00f6e969d365cea6b010ab
 5  107. 7c67e1448b00f6e969d365cea6b010ab
 6  127. 7c67e1448b00f6e969d365cea6b010ab
 7  125. 7c67e1448b00f6e969d365cea6b010ab
 8  127. 7c67e1448b00f6e969d365cea6b010ab
 9  117. 7c67e1448b00f6e969d365cea6b010ab
10  107. 7c67e1448b00f6e969d365cea6b010ab
# ... with 116,571 more rows
# A tibble: 116,581 x 2
   price seller_id                       
   <dbl> <chr>                           
 1 6735  e3b4998c7a498169dc7bce44e6bb6277
 2 6729  80ceebb4ee9b31afb6c6a916a574a1e2
 3 6499  ee27a8f15b1dded4d213a468ba4eb391
 4 4799  59417c56835dd8e2e72f91f809cd4092
 5 4690  59417c56835dd8e2e72f91f809cd4092
 6 4590  c72de06d72748d1a0dfb2125be43ba63
 7 4400. 512d298ac2a96d1931b6bd30aa21f61d
 8 4100. ed4acab38528488b65a9a9c603ff024a
 9 4059  821fb029fc6e495ca4f08a35d51e53a5
10 4000. fa1c13f2614d7b5c4749cbc52fecda94
# ... with 116,571 more rows
…
Sellers ordered by city¶

In [68]:

Sellers_by_city_desc <- Sellers %>% count(seller_city) %>% arrange(desc(n)) %>% print(n=10)

Sellers_by_city_asc <- Sellers %>% count(seller_city) %>% arrange(n) %>% print(n=10)

filter(Sellers_by_city_desc, n == 1) # Cities with only 1 selle

# A tibble: 611 x 2
   seller_city        n
   <chr>          <int>
 1 sao paulo        694
 2 curitiba         127
 3 rio de janeiro    96
 4 belo horizonte    68
 5 ribeirao preto    52
 6 guarulhos         50
 7 ibitinga          49
 8 santo andre       45
 9 campinas          41
10 maringa           40
# ... with 601 more rows
# A tibble: 611 x 2
   seller_city             n
   <chr>               <int>
 1 4482255                 1
 2 abadia de goias         1
 3 afonso claudio          1
 4 aguas claras df         1
 5 alambari                1
 6 almirante tamandare     1
 7 alvares machado         1
 8 alvorada                1
 9 ampere                  1
10 andira-pr               1
# ... with 601 more rows
…
	vitoria de santo antao   1

	xaxim                    1

Sellers grouped by zipcodes:¶

In [69]:

Sellers_by_zip_desc <- Sellers %>% count(seller_zip_code_prefix) %>% arrange(desc(n)) %>% print(n=10)

Sellers_by_zip_asc <- Sellers %>% count(seller_zip_code_prefix) %>% arrange(n) %>% print(n=10)

filter(Sellers_by_zip_desc, n == 1) # zip with only 1 seller

# A tibble: 2,246 x 2
   seller_zip_code_prefix     n
                    <dbl> <int>
 1                  14940    49
 2                  13660    10
 3                  13920     9
 4                  16200     9
 5                   1026     8
 6                  14020     8
 7                  87050     8
 8                  13481     7
 9                  37540     7
10                  18015     6
# ... with 2,236 more rows
# A tibble: 2,246 x 2
   seller_zip_code_prefix     n
                    <dbl> <int>
 1                   1001     1
 2                   1022     1
 3                   1035     1
 4                   1039     1
 5                   1040     1
 6                   1041     1
 7                   1042     1
 8                   1044     1
 9                   1125     1
10                   1126     1
# ... with 2,236 more rows
…
	993001

	996701

	997001

	997301

Sellers by states:¶

In [70]:

Sellers_by_state_desc <- Sellers %>% count(seller_state) %>% arrange(desc(n)) %>% print(n=10)

# A tibble: 23 x 2
   seller_state     n
   <chr>        <int>
 1 SP            1849
 2 PR             349
 3 MG             244
 4 SC             190
 5 RJ             171
 6 RS             129
 7 GO              40
 8 DF              30
 9 ES              23
10 BA              19
# ... with 13 more rows
…
	vitoria de santo antao   1

	xaxim                    1

Top Sellers by total number of orders:¶

In [72]:

Sellers_by_ordersn <- Olist %>% count(seller_id) %>% arrange(desc(n)) %>% print(n=10)

Olist %>% count(seller_id) %>% arrange(n) %>% print(n=20)

Top_Five_Sellers <- head(Sellers_by_ordersn)

# A tibble: 3,033 x 2
   seller_id                            n
   <chr>                            <int>
 1 4a3ca9315b744ce9f8e9374361493884  2155
 2 6560211a19b47992c3666cc44a7e94c0  2130
 3 1f50f920176fa81dab994f9023523100  2017
 4 cc419e0650a3c5ba77189a1882b7556a  1893
 5 da8622b14eb17ae2831f4ac5b9dab84a  1662
 6 955fee9216a65b617aa5c0531780ce60  1530
 7 1025f0e2d44d7041d6cf58b6550e0bfa  1477
 8 7c67e1448b00f6e969d365cea6b010ab  1463
 9 7a67c85e85bb2ce8582c35f2203ad736  1245
10 ea8482cd71df3c1969d7b9473ff13abc  1240
# ... with 3,023 more rows
# A tibble: 3,033 x 2
   seller_id                            n
   <chr>                            <int>
 1 001e6ad469a905060d959994f1b41e4f     1
 2 00ab3eff1b5192e5f1a63bcecfee11c8     1
 3 00d8b143d12632bad99c0ad66ad52825     1
 4 04ee0ec01589969663ba5967c0e0bdc0     1
 5 05a48cc8859962767935ab9087417fbb     1
 6 05ca864204d09595ae591b93ea9cf93d     1
 7 08d1c9478fb0d7d7fcac9c0da4e82fc7     1
 8 0a198e95d32b1be2da9424c962a6ebfa     1
 9 0af2ab31141893d26aca5a404a537dab     1
10 0b09101900100c0e9d312861fad5a1b9     1
11 0b1ca3ef18a63d7eb0c8897fa0849c08     1
12 0b46f784306be7200ca1700aa55d819f     1
13 0bb27263628258b8111a0262769fa9db     1
14 0ee4fb99ac55ffbbc98795aa01b7f8fa     1
15 0f519b0d2e5eb2227c93dd25038bfc01     1
16 0f80a40c312b2472dca482cf50f5186f     1
17 0f94588695d71662beec8d883ffacf09     1
18 101921376b577a4540dc30e9009133ca     1
19 134b867a0f7f8bbe6abf10f91874891e     1
20 139157dd4daa45c25b0807ffff348363     1
# ... with 3,013 more rows
…
	4a3ca9315b744ce9f8e937436149388414940ibitinga             SP

Top 5 sellers info from merged Dataset (Olist)¶

In [75]:

Top_Five_Sellers_Olist <- Olist %>% filter(seller_id %in% c("4a3ca9315b744ce9f8e9374361493884", "6560211a19b47992c3666cc44a7e94c0",
                                                              "1f50f920176fa81dab994f9023523100", "cc419e0650a3c5ba77189a1882b7556a",
                                                              "da8622b14eb17ae2831f4ac5b9dab84a"))

In [76]:

Top_Seller <- Olist %>% filter(seller_id == "4a3ca9315b744ce9f8e9374361493884") %>% print

# A tibble: 2,155 x 34
    ...1 customer_id customer_unique~ customer_zip_co~ customer_city
   <dbl> <chr>       <chr>                       <dbl> <chr>        
 1  1894 6d808c06e2~ 821e4e781313d2e~            28970 araruama     
 2  1895 945377aea7~ f7ac7452ae241a5~            86750 iguaracu     
 3  1896 8762f5a57d~ ce36b982a65b035~            11310 sao vicente  
 4  1897 4945390b4d~ 5eb26be6d23fe97~             2083 sao paulo    
 5  1898 c81fd58c2a~ 2f3c23d155ce288~             9854 sao bernardo~
 6  1899 573f6000cf~ 4fa7071a973d174~            30666 belo horizon~
 7  1900 1110c7f9e3~ 117d2f5deb50886~            86026 londrina     
 8  1901 c9bb3eded2~ 16a80e00832b1f2~             1306 sao paulo    
 9  1902 37a308b06e~ 1772de5c8b22d69~            17050 bauru        
10  1903 ef1a8591a9~ ac6b61f2d1d53bb~             6180 osasco       
# ... with 2,145 more rows, and 29 more variables: customer_state <chr>,
#   order_id <chr>, order_status <chr>, order_estimated_delivery_date <dttm>,
#   order_purchase_date <dttm>, order_delivered_date <dttm>,
#   order_item_id <dbl>, product_id <chr>, seller_id <chr>, price <dbl>,
#   freight_value <dbl>, payment_sequential <dbl>, payment_type <chr>,
#   payment_installments <dbl>, payment_value <dbl>, review_id <chr>,
#   review_score <dbl>, product_category_name <chr>, product_name_lenght <dbl>,
#   product_description_lenght <dbl>, product_photos_qty <dbl>,
#   product_weight_g <dbl>, product_length_cm <dbl>, product_height_cm <dbl>,
…
In [78]:

Order_price <- Olist %>% group_by(seller_id) %>% summarize(Total_Sales = sum(price))%>% print(n=10)

`summarise()` ungrouping output (override with `.groups` argument)

# A tibble: 3,033 x 2
   seller_id                        Total_Sales
   <chr>                                  <dbl>
 1 0015a82c2db000af6aaaf3ae2ecb0532       2685 
 2 001cca7ae9ae17fb1caed9dfb1094831      25249.
 3 001e6ad469a905060d959994f1b41e4f        250 
 4 002100f778ceb8431b7a1020ff7ab48f       1303.
 5 004c9cd9d87a3c30c522c48c4fc07416      19376 
 6 00720abe85ba0859807595bbf045a33b       1008.
 7 00ab3eff1b5192e5f1a63bcecfee11c8         98 
 8 00d8b143d12632bad99c0ad66ad52825         86 
 9 00ee68308b45bc5e2660cd833c3f81cc      21959 
10 00fc707aaaad2d31347cf883cd2dfe10      13491.
# ... with 3,023 more rows
…
cor(Top_Seller$price, Top_Seller$freight_value) 

cor(Top_Seller$payment_value, Top_Seller$freight_value)

sd(Top_Seller$freight_value)
summary(Top_Seller$freight_value)

summary(Top_Seller$payment_value) # Top seller has on average $142.06 Braz. currency orders

Top_Seller %>% filter(freight_value >= 17.50) %>% count(seller_id)

Top_Ten_Sellers <- head(Sellers_by_ordersn,10)
Top_Ten_Sellers

# A tibble: 2,155 x 34
    ...1 customer_id customer_unique~ customer_zip_co~ customer_city
   <dbl> <chr>       <chr>                       <dbl> <chr>        
 1  1894 6d808c06e2~ 821e4e781313d2e~            28970 araruama     
 2  1895 945377aea7~ f7ac7452ae241a5~            86750 iguaracu     
 3  1896 8762f5a57d~ ce36b982a65b035~            11310 sao vicente  
 4  1897 4945390b4d~ 5eb26be6d23fe97~             2083 sao paulo    
 5  1898 c81fd58c2a~ 2f3c23d155ce288~             9854 sao bernardo~
 6  1899 573f6000cf~ 4fa7071a973d174~            30666 belo horizon~
 7  1900 1110c7f9e3~ 117d2f5deb50886~            86026 londrina     
 8  1901 c9bb3eded2~ 16a80e00832b1f2~             1306 sao paulo    
 9  1902 37a308b06e~ 1772de5c8b22d69~            17050 bauru        
10  1903 ef1a8591a9~ ac6b61f2d1d53bb~             6180 osasco       
# ... with 2,145 more rows, and 29 more variables: customer_state <chr>,
#   order_id <chr>, order_status <chr>, order_estimated_delivery_date <dttm>,
#   order_purchase_date <dttm>, order_delivered_date <dttm>,
#   order_item_id <dbl>, product_id <chr>, seller_id <chr>, price <dbl>,
#   freight_value <dbl>, payment_sequential <dbl>, payment_type <chr>,
#   payment_installments <dbl>, payment_value <dbl>, review_id <chr>,
#   review_score <dbl>, product_category_name <chr>, product_name_lenght <dbl>,
#   product_description_lenght <dbl>, product_photos_qty <dbl>,
#   product_weight_g <dbl>, product_length_cm <dbl>, product_height_cm <dbl>,
#   product_width_cm <dbl>, seller_zip_code_prefix <dbl>, seller_city <chr>,
#   seller_state <chr>, product_category_name_english <chr>
# A tibble: 116,581 x 7
   seller_id freight_value price payment_value order_purchase_date
   <chr>             <dbl> <dbl>         <dbl> <dttm>             
 1 7c67e144~          21.9  125.          147. 2017-05-16 00:00:00
 2 7c67e144~          24.9  113.          276. 2017-11-09 00:00:00
 3 7c67e144~          24.9  113.          276. 2017-11-09 00:00:00
 4 7c67e144~          15.6  125.          141. 2017-05-07 00:00:00
 5 7c67e144~          30.6  107.          138. 2018-02-03 00:00:00
 6 7c67e144~          15.1  127.          142. 2017-03-23 00:00:00
 7 7c67e144~          30.7  125.          156. 2017-05-16 00:00:00
 8 7c67e144~          21.3  127.          148. 2017-03-18 00:00:00
 9 7c67e144~          33.1  117.          150. 2018-03-15 00:00:00
10 7c67e144~          21.8  107.          258. 2018-01-26 00:00:00
# ... with 116,571 more rows, and 2 more variables:
#   order_estimated_delivery_date <dttm>, order_delivered_date <dttm>
…
'seller_id'
'seller_zip_code_prefix'
'seller_city'
'seller_state'

# A tibble: 29 x 35
    ...1 customer_id customer_unique~ customer_zip_co~ customer_city
   <dbl> <chr>       <chr>                       <dbl> <chr>        
 1 14326 cc112698a2~ 7db6e545b3e1939~            55420 canhotinho   
 2 14327 991a389119~ 8e3c9cb462e9614~            65922 joao lisboa  
 3 14328 d5c50a4808~ 34245288901ec24~            89801 chapeco      
 4 14329 229300f9dc~ 03588a1b5849958~            64330 sao miguel d~
 5 14330 7fa0ece685~ 30be152f27e50a4~            62800 aracati      
 6 14331 ec450e291b~ 3122dff8cffcaa4~            39780 santa maria ~
 7 14332 df7b73935d~ 787870a8d022009~            84630 paula freitas
 8 14333 f595833420~ 8262ef5046932be~            58345 mari         
 9 14334 34bc89a692~ 3ac7a309b670de8~            13575 sao carlos   
10 14335 70dadbeed0~ 0df7cb24e2043ae~            28998 saquarema    
# ... with 19 more rows, and 30 more variables: customer_state <chr>,
#   order_id <chr>, order_status <chr>, order_estimated_delivery_date <dttm>,
#   order_purchase_date <dttm>, order_delivered_date <dttm>,
#   order_item_id <dbl>, product_id <chr>, seller_id <chr>, price <dbl>,
#   freight_value <dbl>, payment_sequential <dbl>, payment_type <chr>,
#   payment_installments <dbl>, payment_value <dbl>, review_id <chr>,
#   review_score <dbl>, product_category_name <chr>, product_name_lenght <dbl>,
#   product_description_lenght <dbl>, product_photos_qty <dbl>,
#   product_weight_g <dbl>, product_length_cm <dbl>, product_height_cm <dbl>,
#   product_width_cm <dbl>, seller_zip_code_prefix <dbl>, seller_city <chr>,
#   seller_state <chr>, product_category_name_english <chr>,
#   freight_ratio <dbl>
# A tibble: 5 x 2
  seller_id                            n
  <chr>                            <int>
1 47efca563408aae19bb7206c2d969ea9    12
2 3364a91ec4d56c98e44174de954b94f6     6
3 4b39558c138930b9e5489c93b6df5fe3     5
4 c53bcd3be457a342a97e39e5a9f0be22     5
5 4be2e7f96b4fd749d52dff41f80e39dd     1
# A tibble: 29 x 7
   seller_id price payment_value freight_value order_purchase_date
   <chr>     <dbl>         <dbl>         <dbl> <dttm>             
 1 47efca56~   295         320.           24.9 2018-01-27 00:00:00
 2 47efca56~   285         321.           35.8 2018-08-23 00:00:00
 3 47efca56~   295         349.           54.4 2018-02-15 00:00:00
 4 47efca56~   295         315.           20.1 2018-03-12 00:00:00
 5 47efca56~   295         323.           28.2 2018-04-25 00:00:00
 6 47efca56~   295         339.           44.5 2018-02-22 00:00:00
 7 47efca56~   295         553.           39.3 2018-01-05 00:00:00
 8 47efca56~    71          94.6          23.6 2018-07-13 00:00:00
 9 47efca56~    71         132.           60.6 2018-05-17 00:00:00
10 47efca56~   139         174.           34.8 2018-02-19 00:00:00
# ... with 19 more rows, and 2 more variables:
#   order_estimated_delivery_date <dttm>, order_delivered_date <dttm>
…
	fdf736c18c589ed030e058312203e1b21

	fe19dce63ae80346207c6c55713d10231

	fe9d9cf8631285d5982c6e2cf27fb1141

	feb793c88d836c3a75efa4b5a3465d701

	fec6912baad85d41729669edd6b4d3b81

	fedaedd3ca31d56ab33e92035e4b361c1

	ffcfefa19b08742c5d315f2791395ee51

# A tibble: 806 x 1
   seller_id                       
   <chr>                           
 1 010543a62bd80aa422851e79a3bc7540
 2 011b0eaba87386a2ae96a7d32bb531d1
 3 02a2272692e13558373c66db98f05e2e
 4 0336182e1b3e92f029d5354832045fdf
 5 038b75b729c8a9a04b0d07cba7eabe86
 6 04843805947f0fc584fc1969b6e50fe7
 7 05aebce0b5c8f0d41b29b686f2d05fd3
 8 062c325cd6a2b87845fab56b4ec2eeae
 9 07a9bc7f61396b658ddf3ac534efe44c
10 07d75e33f2750d97d467fb57e4dfdd8a
# ... with 796 more rows
# A tibble: 6,753 x 35
    ...1 customer_id customer_unique~ customer_zip_co~ customer_city
   <dbl> <chr>       <chr>                       <dbl> <chr>        
 1    24 11eee0e62a~ 7dd466ce70871be~            40230 salvador     
 2    34 ac318397fb~ aaad33c5051196b~            37137 alfenas      
 3    35 ac318397fb~ aaad33c5051196b~            37137 alfenas      
 4   131 c8b7d6f94e~ a1c839a978e05fe~            11702 praia grande 
 5   133 c8b7d6f94e~ a1c839a978e05fe~            11702 praia grande 
 6   235 e7fce6d303~ afb480f31af6e82~            22240 rio de janei~
 7   264 5c0a13726f~ 62aed189592f119~            13059 campinas     
 8   266 5c0a13726f~ 62aed189592f119~            13059 campinas     
 9   564 fd70902369~ 6e5c28706f896b7~            70732 brasilia     
10   579 05c3bc7f2c~ 5114ebcaa15bc7f~            58056 joao pessoa  
# ... with 6,743 more rows, and 30 more variables: customer_state <chr>,
#   order_id <chr>, order_status <chr>, order_estimated_delivery_date <dttm>,
#   order_purchase_date <dttm>, order_delivered_date <dttm>,
#   order_item_id <dbl>, product_id <chr>, seller_id <chr>, price <dbl>,
#   freight_value <dbl>, payment_sequential <dbl>, payment_type <chr>,
#   payment_installments <dbl>, payment_value <dbl>, review_id <chr>,
#   review_score <dbl>, product_category_name <chr>, product_name_lenght <dbl>,
#   product_description_lenght <dbl>, product_photos_qty <dbl>,
#   product_weight_g <dbl>, product_length_cm <dbl>, product_height_cm <dbl>,
#   product_width_cm <dbl>, seller_zip_code_prefix <dbl>, seller_city <chr>,
#   seller_state <chr>, product_category_name_english <chr>,
#   freight_ratio <dbl>
# A tibble: 84,817 x 3
   seller_id                        customer_city         customer_state
   <chr>                            <chr>                 <chr>         
 1 7c67e1448b00f6e969d365cea6b010ab franca                SP            
 2 7c67e1448b00f6e969d365cea6b010ab santarem              PA            
 3 7c67e1448b00f6e969d365cea6b010ab santarem              PA            
 4 7c67e1448b00f6e969d365cea6b010ab nova santa rita       RS            
 5 7c67e1448b00f6e969d365cea6b010ab mage                  RJ            
 6 7c67e1448b00f6e969d365cea6b010ab angelina              SC            
 7 7c67e1448b00f6e969d365cea6b010ab contagem              MG            
 8 7c67e1448b00f6e969d365cea6b010ab varzea grande         MT            
 9 7c67e1448b00f6e969d365cea6b010ab belo horizonte        MG            
10 7c67e1448b00f6e969d365cea6b010ab santa rita do sapucai MG            
# ... with 84,807 more rows
…
Isolated_Sellers_Revenue <- Isolated_Sellers_State_Olist %>% group_by(seller_id) %>% summarize(Total_Revenue = sum(payment_value)) %>% 
  select(seller_id, Total_Revenue) %>% arrange(desc(Total_Revenue)) %>% print

Isolated_Sellers_Avg_Payment <- Isolated_Sellers_State_Olist %>% group_by(seller_id) %>% summarize(Avg_sale = mean(payment_value)) %>% 
  select(seller_id, Avg_sale) %>% arrange(desc(Avg_sale)) %>% print

Isolated_Sellers_State_Olist <- Olist %>% filter(seller_id %in% c("4be2e7f96b4fd749d52dff41f80e39dd", "3364a91ec4d56c98e44174de954b94f6","47efca563408aae19bb7206c2d969ea9",
                                                                  "4b39558c138930b9e5489c93b6df5fe3", "c53bcd3be457a342a97e39e5a9f0be22", 
                                                                  "a5259c149128e82c9d6d46e0c1c812bb", "327b89b872c14d1c0be7235ef4871685",
                                                                  "67225bff54a172ff67579aaf583efd78")) %>% print

`summarise()` ungrouping output (override with `.groups` argument)

# A tibble: 3,033 x 2
   seller_id                        Total_Revenue
   <chr>                                    <dbl>
 1 7c67e1448b00f6e969d365cea6b010ab       512645.
 2 1025f0e2d44d7041d6cf58b6550e0bfa       312456.
 3 4a3ca9315b744ce9f8e9374361493884       306139.
 4 1f50f920176fa81dab994f9023523100       291919.
 5 53243585a1d6dc2643021fd1853d8905       284903.
 6 da8622b14eb17ae2831f4ac5b9dab84a       276579.
 7 4869f7a5dfa277a7dca6462dcf3b52b2       264166.
 8 955fee9216a65b617aa5c0531780ce60       236414.
 9 fa1c13f2614d7b5c4749cbc52fecda94       206513.
10 7e93a43ef30c4f03f38b393420bc753a       185134.
# ... with 3,023 more rows
…
